client_id;server_id;chaosnummer;sprache;betrag;jahre;foerdermitglied;ermaessigt;neumitglied;nachzahler;datenaenderung;vorname;nachname;land;plz;stadt;strasse;email;erfa;timestamp;gpg;einzahlung;bezahlt_bis
2011;16;1234;0;72;1;1;0;0;1;0;Vorn;Nachnam;AT;1070;Wien;Adresse 123;email@you.com;--;ra12271515;--;11.3.2015;25.4.2016
2012;17;12345;0;0;0;1;1;0;0;0;Vor;Nach;D;49074;Osnabrueck;Straße 32;eicar@com.de;--;ra12271516;bcd4abf8;28.12.2014;10.2.2016
2014;18;23;0;36;1;1;1;0;1;0;V.;Nachnam;D;38120;Braunschweig;Bla 42;test@posteo.de;--;ra12271519;cd447604;9.3.2015;15.6.2016
2015;19;4242;0;144;2;0;0;0;1;1;Vorname;Nachname;D;28215;Bremen;Hof 3 Hinterhaus;meal@de.ed;HB;ra12271529;--;29.12.2014;27.12.2015

